* c78b00e3b066b38efc15191ed080a28f6a816611 Correcoes de Bugs na Rota / LocalMapV1
*   04f7860332d4e3f393b61131043edfc1a73d861b Merge branch 'main' of https://gitlab.com/murilotoledo2/localmap
|\  
| * 310eb706099d3e4cc2a6eb27abe146482f742c96 Add LICENSE
* | d4b1123e0059b90b0595b98d99903b0d6ee3598b Correcao de Bugs no sistema de Rotas e Introduzido LocalMap V1
|/  
* 79573889c45e0e226a4e0c30967db29826267b38 Introduzindo Spinners para Busca de Rotas
* 5a9ca24cf1d5e828bd0be4124225cc24d4edd020 Adicionado Funcao de Rotas
* 44eb9615f3ac0aa8174236bcd90d91f130d81d56 inicio do app
